Day 11 of NTRESS 6000
…
 **lets filter this raw dataset to keep only the
date,
country,province,type,and
cases 
 we then are piping that dataframe into filter to
only keep cases on january 3rd, 2021

coronavirus |> 
  select(date,country,province,type,cases) |> 
  filter(date == "2021-01-03")

## # A tibble: 852 × 5
##    date       country        province                         type      cases
##    <date>     <chr>          <chr>                            <chr>     <dbl>
##  1 2021-01-03 Canada         Alberta                          confirmed  3800
##  2 2021-01-03 United Kingdom Anguilla                         confirmed     2
##  3 2021-01-03 China          Anhui                            confirmed     0
##  4 2021-01-03 Netherlands    Aruba                            confirmed    32
##  5 2021-01-03 Australia      Australian Capital Territory     confirmed     0
##  6 2021-01-03 China          Beijing                          confirmed     2
##  7 2021-01-03 United Kingdom Bermuda                          confirmed     0
##  8 2021-01-03 Netherlands    Bonaire, Sint Eustatius and Saba confirmed     0
##  9 2021-01-03 Canada         British Columbia                 confirmed     0
## 10 2021-01-03 United Kingdom British Virgin Islands           confirmed     0
## # ℹ 842 more rows
…
